
{
  "header": {
    "reportVersion": 1,
    "event": "Allocation failed - JavaScript heap out of memory",
    "trigger": "FatalError",
    "filename": "report.20210117.162608.7468.0.001.json",
    "dumpEventTime": "2021-01-17T16:26:08Z",
    "dumpEventTimeStamp": "1610875568366",
    "processId": 7468,
    "cwd": "C:\\duan\\amdin-be",
    "commandLine": [
      "C:\\Program Files\\nodejs\\node.exe",
      "C:\\Users\\Admin\\AppData\\Roaming\\npm/node_modules/@angular/cli/bin/ng",
      "s"
    ],
    "nodejsVersion": "v12.16.1",
    "wordSize": 64,
    "arch": "x64",
    "platform": "win32",
    "componentVersions": {
      "node": "12.16.1",
      "v8": "7.8.279.23-node.31",
      "uv": "1.34.0",
      "zlib": "1.2.11",
      "brotli": "1.0.7",
      "ares": "1.15.0",
      "modules": "72",
      "nghttp2": "1.40.0",
      "napi": "5",
      "llhttp": "2.0.4",
      "http_parser": "2.9.3",
      "openssl": "1.1.1d",
      "cldr": "35.1",
      "icu": "64.2",
      "tz": "2019c",
      "unicode": "12.1"
    },
    "release": {
      "name": "node",
      "lts": "Erbium",
      "headersUrl": "https://nodejs.org/download/release/v12.16.1/node-v12.16.1-headers.tar.gz",
      "sourceUrl": "https://nodejs.org/download/release/v12.16.1/node-v12.16.1.tar.gz",
      "libUrl": "https://nodejs.org/download/release/v12.16.1/win-x64/node.lib"
    },
    "osName": "Windows_NT",
    "osRelease": "10.0.18363",
    "osVersion": "Windows 10 Pro",
    "osMachine": "x86_64",
    "cpus": [
      {
        "model": "Intel(R) Core(TM) i5-8300H CPU @ 2.30GHz",
        "speed": 2304,
        "user": 5402750,
        "nice": 0,
        "sys": 3863890,
        "idle": 74083671,
        "irq": 915312
      },
      {
        "model": "Intel(R) Core(TM) i5-8300H CPU @ 2.30GHz",
        "speed": 2304,
        "user": 5494890,
        "nice": 0,
        "sys": 1301734,
        "idle": 76553406,
        "irq": 36953
      },
      {
        "model": "Intel(R) Core(TM) i5-8300H CPU @ 2.30GHz",
        "speed": 2304,
        "user": 9101296,
        "nice": 0,
        "sys": 2901656,
        "idle": 71347078,
        "irq": 57281
      },
      {
        "model": "Intel(R) Core(TM) i5-8300H CPU @ 2.30GHz",
        "speed": 2304,
        "user": 4920421,
        "nice": 0,
        "sys": 1833062,
        "idle": 76596531,
        "irq": 29109
      },
      {
        "model": "Intel(R) Core(TM) i5-8300H CPU @ 2.30GHz",
        "speed": 2304,
        "user": 6957781,
        "nice": 0,
        "sys": 2437328,
        "idle": 73954906,
        "irq": 64093
      },
      {
        "model": "Intel(R) Core(TM) i5-8300H CPU @ 2.30GHz",
        "speed": 2304,
        "user": 3518937,
        "nice": 0,
        "sys": 1877593,
        "idle": 77953484,
        "irq": 33937
      },
      {
        "model": "Intel(R) Core(TM) i5-8300H CPU @ 2.30GHz",
        "speed": 2304,
        "user": 5796312,
        "nice": 0,
        "sys": 2162453,
        "idle": 75391250,
        "irq": 47500
      },
      {
        "model": "Intel(R) Core(TM) i5-8300H CPU @ 2.30GHz",
        "speed": 2304,
        "user": 4192484,
        "nice": 0,
        "sys": 1979937,
        "idle": 77177593,
        "irq": 26578
      }
    ],
    "networkInterfaces": [
      {
        "name": "Ethernet",
        "internal": false,
        "mac": "54:bf:64:1a:24:46",
        "address": "fe80::ccb9:c8d:4599:ea6c",
        "netmask": "ffff:ffff:ffff:ffff::",
        "family": "IPv6",
        "scopeid": 21
      },
      {
        "name": "Ethernet",
        "internal": false,
        "mac": "54:bf:64:1a:24:46",
        "address": "192.168.1.168",
        "netmask": "255.255.255.0",
        "family": "IPv4"
      },
      {
        "name": "Wi-Fi",
        "internal": false,
        "mac": "38:de:ad:a8:97:92",
        "address": "fe80::888d:661d:e4b7:d0ce",
        "netmask": "ffff:ffff:ffff:ffff::",
        "family": "IPv6",
        "scopeid": 10
      },
      {
        "name": "Wi-Fi",
        "internal": false,
        "mac": "38:de:ad:a8:97:92",
        "address": "192.168.19.102",
        "netmask": "255.255.255.0",
        "family": "IPv4"
      },
      {
        "name": "Local Area Connection* 12",
        "internal": false,
        "mac": "3a:de:ad:a8:97:92",
        "address": "fe80::b8eb:dddf:e1ec:461b",
        "netmask": "ffff:ffff:ffff:ffff::",
        "family": "IPv6",
        "scopeid": 6
      },
      {
        "name": "Local Area Connection* 12",
        "internal": false,
        "mac": "3a:de:ad:a8:97:92",
        "address": "192.168.137.1",
        "netmask": "255.255.255.0",
        "family": "IPv4"
      },
      {
        "name": "Loopback Pseudo-Interface 1",
        "internal": true,
        "mac": "00:00:00:00:00:00",
        "address": "::1",
        "netmask": "ffff:ffff:ffff:ffff:ffff:ffff:ffff:ffff",
        "family": "IPv6",
        "scopeid": 0
      },
      {
        "name": "Loopback Pseudo-Interface 1",
        "internal": true,
        "mac": "00:00:00:00:00:00",
        "address": "127.0.0.1",
        "netmask": "255.0.0.0",
        "family": "IPv4"
      },
      {
        "name": "vEthernet (Default Switch)",
        "internal": false,
        "mac": "00:15:5d:48:d4:70",
        "address": "fe80::c4ac:8314:15b9:7338",
        "netmask": "ffff:ffff:ffff:ffff::",
        "family": "IPv6",
        "scopeid": 25
      },
      {
        "name": "vEthernet (Default Switch)",
        "internal": false,
        "mac": "00:15:5d:48:d4:70",
        "address": "192.168.53.177",
        "netmask": "255.255.255.240",
        "family": "IPv4"
      }
    ],
    "host": "Admin"
  },
  "javascriptStack": {
    "message": "No stack.",
    "stack": [
      "Unavailable."
    ]
  },
  "nativeStack": [
    {
      "pc": "0x00007ff75a1119f9",
      "symbol": "std::basic_ostream<char,std::char_traits<char> >::operator<<+10873"
    },
    {
      "pc": "0x00007ff75a115e1c",
      "symbol": "std::basic_ostream<char,std::char_traits<char> >::operator<<+28316"
    },
    {
      "pc": "0x00007ff75a114dd8",
      "symbol": "std::basic_ostream<char,std::char_traits<char> >::operator<<+24152"
    },
    {
      "pc": "0x00007ff75a2134cb",
      "symbol": "v8::base::CPU::has_sse+38363"
    },
    {
      "pc": "0x00007ff75aa29f4e",
      "symbol": "v8::Isolate::ReportExternalAllocationLimitReached+94"
    },
    {
      "pc": "0x00007ff75aa12021",
      "symbol": "v8::SharedArrayBuffer::Externalize+833"
    },
    {
      "pc": "0x00007ff75a8de57c",
      "symbol": "v8::internal::Heap::EphemeronKeyWriteBarrierFromCode+1436"
    },
    {
      "pc": "0x00007ff75a8e97d0",
      "symbol": "v8::internal::Heap::ProtectUnprotectedMemoryChunks+1312"
    },
    {
      "pc": "0x00007ff75a8e62f4",
      "symbol": "v8::internal::Heap::PageFlagsAreConsistent+3204"
    },
    {
      "pc": "0x00007ff75a8dbb13",
      "symbol": "v8::internal::Heap::CollectGarbage+1283"
    },
    {
      "pc": "0x00007ff75a8da184",
      "symbol": "v8::internal::Heap::AddRetainedMap+2452"
    },
    {
      "pc": "0x00007ff75a8fb36d",
      "symbol": "v8::internal::Factory::NewFillerObject+61"
    },
    {
      "pc": "0x00007ff75a660c51",
      "symbol": "v8::internal::interpreter::JumpTableTargetOffsets::iterator::operator=+1665"
    },
    {
      "pc": "0x00007ff75ae74ddd",
      "symbol": "v8::internal::SetupIsolateDelegate::SetupHeap+546637"
    },
    {
      "pc": "0x0000009e3829abdc",
      "symbol": ""
    }
  ],
  "javascriptHeap": {
    "totalMemory": 2164682752,
    "totalCommittedMemory": 2164682752,
    "usedMemory": 1995197488,
    "availableMemory": 58873472,
    "memoryLimit": 2197815296,
    "heapSpaces": {
      "read_only_space": {
        "memorySize": 262144,
        "committedMemory": 262144,
        "capacity": 32808,
        "used": 32808,
        "available": 0
      },
      "new_space": {
        "memorySize": 33554432,
        "committedMemory": 33554432,
        "capacity": 16759296,
        "used": 13576152,
        "available": 3183144
      },
      "old_space": {
        "memorySize": 1764114432,
        "committedMemory": 1764114432,
        "capacity": 1673610152,
        "used": 1668496848,
        "available": 5113304
      },
      "code_space": {
        "memorySize": 8032256,
        "committedMemory": 8032256,
        "capacity": 7651328,
        "used": 6966144,
        "available": 685184
      },
      "map_space": {
        "memorySize": 60035072,
        "committedMemory": 60035072,
        "capacity": 8173280,
        "used": 8173280,
        "available": 0
      },
      "large_object_space": {
        "memorySize": 298061824,
        "committedMemory": 298061824,
        "capacity": 297407968,
        "used": 297407968,
        "available": 0
      },
      "code_large_object_space": {
        "memorySize": 622592,
        "committedMemory": 622592,
        "capacity": 544288,
        "used": 544288,
        "available": 0
      },
      "new_large_object_space": {
        "memorySize": 0,
        "committedMemory": 0,
        "capacity": 16759296,
        "used": 0,
        "available": 16759296
      }
    }
  },
  "resourceUsage": {
    "userCpuSeconds": 327.687,
    "kernelCpuSeconds": 18.984,
    "cpuConsumptionPercent": 126.522,
    "maxRss": 2440749056,
    "pageFaults": {
      "IORequired": 2537927,
      "IONotRequired": 0
    },
    "fsActivity": {
      "reads": 14511,
      "writes": 10
    }
  },
  "libuv": [
  ],
  "environmentVariables": {
    "ALLUSERSPROFILE": "C:\\ProgramData",
    "APPDATA": "C:\\Users\\Admin\\AppData\\Roaming",
    "BROWSERSLIST_IGNORE_OLD_DATA": "1",
    "CHROME_CRASHPAD_PIPE_NAME": "\\\\.\\pipe\\crashpad_13000_PJAKFYYZDFUGLYSK",
    "CommonProgramFiles": "C:\\Program Files\\Common Files",
    "CommonProgramFiles(x86)": "C:\\Program Files (x86)\\Common Files",
    "CommonProgramW6432": "C:\\Program Files\\Common Files",
    "COMPUTERNAME": "ADMIN",
    "ComSpec": "C:\\Windows\\system32\\cmd.exe",
    "DriverData": "C:\\Windows\\System32\\Drivers\\DriverData",
    "FPS_BROWSER_APP_PROFILE_STRING": "Internet Explorer",
    "FPS_BROWSER_USER_PROFILE_STRING": "Default",
    "HOMEDRIVE": "C:",
    "HOMEPATH": "\\Users\\Admin",
    "IntelliJ IDEA": "C:\\Program Files\\JetBrains\\IntelliJ IDEA 2018.3.4\\bin;",
    "JAVA_HOME": "C:\\Program Files\\Java\\jdk1.8.0_201",
    "LOCALAPPDATA": "C:\\Users\\Admin\\AppData\\Local",
    "LOGONSERVER": "\\\\ADMIN",
    "M2_HOME": "C:\\Program Files\\apache-maven-3.6.3",
    "MAVEN_HOME": "C:\\Program Files\\apache-maven-3.6.3",
    "NUMBER_OF_PROCESSORS": "8",
    "OneDrive": "C:\\Users\\Admin\\OneDrive",
    "OneDriveConsumer": "C:\\Users\\Admin\\OneDrive",
    "ORIGINAL_XDG_CURRENT_DESKTOP": "undefined",
    "OS": "Windows_NT",
    "Path": "C:\\Program Files\\AdoptOpenJDK\\jdk-11.0.9.11-hotspot\\bin;C:\\Program Files (x86)\\NetSarang\\Xshell 6\\;C:\\Program Files (x86)\\NetSarang\\Xftp 6\\;C:\\Program Files (x86)\\Common Files\\Oracle\\Java\\javapath;C:\\ProgramData\\Oracle\\Java\\javapath;C:\\Windows\\system32;C:\\Windows;C:\\Windows\\System32\\Wbem;C:\\Windows\\System32\\WindowsPowerShell\\v1.0\\;C:\\Windows\\System32\\OpenSSH\\;C:\\Program Files (x86)\\NVIDIA Corporation\\PhysX\\Common;C:\\Program Files\\nodejs\\;C:\\Program Files\\Git\\cmd;D:\\ky6\\thuctap\\tortoise\\bin;C:\\Program Files\\TortoiseGit\\bin;C:\\Program Files\\apache-maven-3.6.3\\bin;C:\\Program Files\\Java\\jdk1.8.0_201;C:\\Program Files (x86)\\Yarn\\bin\\;C:\\Program Files\\Microsoft\\Web Platform Installer\\;C:\\Program Files\\Java\\jdk-11\\bin;;C:\\Program Files\\Docker\\Docker\\resources\\bin;C:\\ProgramData\\DockerDesktop\\version-bin;C:\\Users\\Admin\\AppData\\Local\\Microsoft\\WindowsApps;C:\\Users\\Admin\\AppData\\Local\\Programs\\Microsoft VS Code\\bin;C:\\Users\\Admin\\AppData\\Roaming\\npm;C:\\Program Files\\JetBrains\\IntelliJ IDEA 2020.1.2\\bin;C:\\Users\\Admin\\AppData\\Local\\GitHubDesktop\\bin;C:\\Users\\Admin\\AppData\\Local\\Yarn\\bin;C:\\Program Files\\JetBrains\\IntelliJ IDEA 2018.3.4\\bin;",
    "PATHEXT": ".COM;.EXE;.BAT;.CMD;.VBS;.VBE;.JS;.JSE;.WSF;.WSH;.MSC;.CPL",
    "PROCESSOR_ARCHITECTURE": "AMD64",
    "PROCESSOR_IDENTIFIER": "Intel64 Family 6 Model 158 Stepping 10, GenuineIntel",
    "PROCESSOR_LEVEL": "6",
    "PROCESSOR_REVISION": "9e0a",
    "ProgramData": "C:\\ProgramData",
    "ProgramFiles": "C:\\Program Files",
    "ProgramFiles(x86)": "C:\\Program Files (x86)",
    "ProgramW6432": "C:\\Program Files",
    "PSModulePath": "C:\\Users\\Admin\\OneDrive\\Tài liệu\\WindowsPowerShell\\Modules;C:\\Program Files\\WindowsPowerShell\\Modules;C:\\Windows\\system32\\WindowsPowerShell\\v1.0\\Modules",
    "PUBLIC": "C:\\Users\\Public",
    "SESSIONNAME": "Console",
    "SystemDrive": "C:",
    "SystemRoot": "C:\\Windows",
    "TEMP": "C:\\Users\\Admin\\AppData\\Local\\Temp",
    "TMP": "C:\\Users\\Admin\\AppData\\Local\\Temp",
    "USERDOMAIN": "ADMIN",
    "USERDOMAIN_ROAMINGPROFILE": "ADMIN",
    "USERNAME": "Admin",
    "USERPROFILE": "C:\\Users\\Admin",
    "WEBPACK_DEV_SERVER": "true",
    "windir": "C:\\Windows",
    "TERM_PROGRAM": "vscode",
    "TERM_PROGRAM_VERSION": "1.52.1",
    "LANG": "en_US.UTF-8",
    "COLORTERM": "truecolor",
    "VSCODE_GIT_IPC_HANDLE": "\\\\.\\pipe\\vscode-git-802c17f4c4-sock",
    "GIT_ASKPASS": "c:\\Users\\Admin\\AppData\\Local\\Programs\\Microsoft VS Code\\resources\\app\\extensions\\git\\dist\\askpass.sh",
    "VSCODE_GIT_ASKPASS_NODE": "C:\\Users\\Admin\\AppData\\Local\\Programs\\Microsoft VS Code\\Code.exe",
    "VSCODE_GIT_ASKPASS_MAIN": "c:\\Users\\Admin\\AppData\\Local\\Programs\\Microsoft VS Code\\resources\\app\\extensions\\git\\dist\\askpass-main.js"
  },
  "sharedObjects": [
    "C:\\Program Files\\nodejs\\node.exe",
    "C:\\Windows\\SYSTEM32\\ntdll.dll",
    "C:\\Windows\\System32\\KERNEL32.DLL",
    "C:\\Windows\\System32\\KERNELBASE.dll",
    "C:\\Windows\\System32\\WS2_32.dll",
    "C:\\Windows\\System32\\RPCRT4.dll",
    "C:\\Windows\\System32\\PSAPI.DLL",
    "C:\\Windows\\SYSTEM32\\dbghelp.dll",
    "C:\\Windows\\System32\\ADVAPI32.dll",
    "C:\\Windows\\System32\\ucrtbase.dll",
    "C:\\Windows\\System32\\msvcrt.dll",
    "C:\\Windows\\SYSTEM32\\IPHLPAPI.DLL",
    "C:\\Windows\\System32\\sechost.dll",
    "C:\\Windows\\SYSTEM32\\USERENV.dll",
    "C:\\Windows\\System32\\profapi.dll",
    "C:\\Windows\\System32\\USER32.dll",
    "C:\\Windows\\System32\\win32u.dll",
    "C:\\Windows\\System32\\GDI32.dll",
    "C:\\Windows\\System32\\gdi32full.dll",
    "C:\\Windows\\System32\\msvcp_win.dll",
    "C:\\Windows\\System32\\CRYPT32.dll",
    "C:\\Windows\\System32\\MSASN1.dll",
    "C:\\Windows\\System32\\bcrypt.dll",
    "C:\\Windows\\SYSTEM32\\WINMM.dll",
    "C:\\Windows\\SYSTEM32\\winmmbase.dll",
    "C:\\Windows\\System32\\cfgmgr32.dll",
    "C:\\Windows\\System32\\bcryptPrimitives.dll",
    "C:\\Windows\\System32\\IMM32.DLL",
    "C:\\Windows\\System32\\powrprof.dll",
    "C:\\Windows\\System32\\UMPDC.dll",
    "C:\\Windows\\SYSTEM32\\CRYPTBASE.DLL",
    "C:\\Windows\\system32\\uxtheme.dll",
    "C:\\Windows\\System32\\combase.dll",
    "C:\\Windows\\system32\\mswsock.dll",
    "C:\\Windows\\System32\\kernel.appcore.dll",
    "\\\\?\\C:\\duan\\amdin-be\\node_modules\\node-sass\\vendor\\win32-x64-72\\binding.node",
    "C:\\Windows\\System32\\NSI.dll",
    "C:\\Windows\\SYSTEM32\\dhcpcsvc6.DLL",
    "C:\\Windows\\SYSTEM32\\dhcpcsvc.DLL",
    "C:\\Windows\\SYSTEM32\\DNSAPI.dll",
    "C:\\Program Files\\Bonjour\\mdnsNSP.dll",
    "C:\\Windows\\System32\\rasadhlp.dll",
    "C:\\Windows\\System32\\fwpuclnt.dll",
    "C:\\Windows\\system32\\napinsp.dll",
    "C:\\Windows\\system32\\pnrpnsp.dll",
    "C:\\Windows\\System32\\winrnr.dll",
    "C:\\Windows\\system32\\NLAapi.dll",
    "C:\\Windows\\system32\\wshbth.dll"
  ]
}