{
  "code": "200",
  "message": "Success",
  "data": [
    {
      "value": {
        "id": 1054,
        "title": "Chuyển tiền",
        "type": "MENU",
        "icon": "flaticon2-browser-2",
        "link": "sfsdf",
        "sort": null,
        "parentId": null,
        "recursiveDone": false,
        "allAction": []
      },
      "children": [
        {
          "value": {
            "id": 1055,
            "title": "Tạo mẫu giao dịch",
            "type": "MENU",
            "icon": "flaticon2-browser-2",
            "link": "dsadd",
            "sort": null,
            "parentId": 1054,
            "recursiveDone": true,
            "allAction": [
              {
                "id": 1056,
                "title": "add",
                "type": "ACTION",
                "icon": null,
                "link": "sdsad",
                "sort": null,
                "parentId": 1055,
                "recursiveDone": true
              },
              {
                "id": 1057,
                "title": "delete",
                "type": "ACTION",
                "icon": null,
                "link": "dsadasd",
                "sort": null,
                "parentId": 1055,
                "recursiveDone": true
              }
            ],
            "grantedAction": [
              {
                "id": 1055,
                "title": "Tạo mẫu giao dịch",
                "type": "MENU",
                "icon": "flaticon2-browser-2",
                "link": "dsadd",
                "sort": null,
                "parentId": 1054,
                "recursiveDone": true
              },
              {
                "id": 1056,
                "title": "add",
                "type": "ACTION",
                "icon": null,
                "link": "sdsad",
                "sort": null,
                "parentId": 1055,
                "recursiveDone": true
              }
            ]
          },
          "children": []
        }
      ]
    },
    {
      "value": {
        "id": 1001,
        "title": "Quản lý tài khoản",
        "type": "MENU",
        "icon": "flaticon2-browser-2",
        "link": "/quan-ly-tai-khoan",
        "sort": null,
        "parentId": null,
        "recursiveDone": false,
        "allAction": []
      },
      "children": [
        {
          "value": {
            "id": 1002,
            "title": "Tạo tài khoản",
            "type": "MENU",
            "icon": "flaticon2-browser-2",
            "link": "taotaikhoan",
            "sort": null,
            "parentId": 1001,
            "recursiveDone": true,
            "allAction": [],
            "grantedAction": []
          },
          "children": []
        }
      ]
    }
  ]
}
